{
  "Packages": [
    {
      "Package": {
        "Id": "UiPath.ComplexScenarios.Activities",
        "Version": "1.0.2"
      },
      "Assemblies": [
        "C:\\Users\\Nastya\\.nuget\\packages\\uipath.complexscenarios.activities/1.0.2\\lib/net461/UiPath.ComplexScenarios.Design.dll"
      ],
      "Path": "C:\\Users\\Nastya\\.nuget\\packages\\uipath.complexscenarios.activities\\1.0.2"
    },
    {
      "Package": {
        "Id": "UiPath.Excel.Activities",
        "Version": "2.8.5"
      },
      "Assemblies": [
        "C:\\Users\\Nastya\\.nuget\\packages\\closedxml/0.87.1\\lib/net40/ClosedXML.dll",
        "C:\\Users\\Nastya\\.nuget\\packages\\csvhelper/2.13.5\\lib/net40-client/CsvHelper.dll",
        "C:\\Users\\Nastya\\.nuget\\packages\\documentformat.openxml/2.5.0\\lib/DocumentFormat.OpenXml.dll",
        "C:\\Users\\Nastya\\.nuget\\packages\\microsoft.visualstudio.ole.interop/7.10.6071\\lib/Microsoft.VisualStudio.OLE.Interop.dll",
        "C:\\Users\\Nastya\\.nuget\\packages\\npoi/2.4.1\\lib/net45/NPOI.dll",
        "C:\\Users\\Nastya\\.nuget\\packages\\npoi/2.4.1\\lib/net45/NPOI.OOXML.dll",
        "C:\\Users\\Nastya\\.nuget\\packages\\npoi/2.4.1\\lib/net45/NPOI.OpenXml4Net.dll",
        "C:\\Users\\Nastya\\.nuget\\packages\\npoi/2.4.1\\lib/net45/NPOI.OpenXmlFormats.dll",
        "C:\\Users\\Nastya\\.nuget\\packages\\sharpziplib/1.0.0\\lib/net45/ICSharpCode.SharpZipLib.dll",
        "C:\\Users\\Nastya\\.nuget\\packages\\uipath.excel.activities/2.8.5\\lib/net461/UiPath.Excel.Activities.Design.dll",
        "C:\\Users\\Nastya\\.nuget\\packages\\uipath.excel.activities/2.8.5\\lib/net461/UiPath.Excel.Activities.dll",
        "C:\\Users\\Nastya\\.nuget\\packages\\uipath.excel.activities/2.8.5\\lib/net461/UiPath.Excel.dll"
      ],
      "Path": "C:\\Users\\Nastya\\.nuget\\packages\\uipath.excel.activities\\2.8.5"
    },
    {
      "Package": {
        "Id": "UiPath.Mail.Activities",
        "Version": "1.8.5"
      },
      "Assemblies": [
        "C:\\Users\\Nastya\\.nuget\\packages\\bouncycastle/1.8.5\\lib/BouncyCastle.Crypto.dll",
        "C:\\Users\\Nastya\\.nuget\\packages\\interop.domino.dll/1.0.0\\lib/Interop.Domino.dll",
        "C:\\Users\\Nastya\\.nuget\\packages\\microsoft.exchange.webservices/2.2.0\\lib/40/Microsoft.Exchange.WebServices.Auth.dll",
        "C:\\Users\\Nastya\\.nuget\\packages\\microsoft.exchange.webservices/2.2.0\\lib/40/Microsoft.Exchange.WebServices.dll",
        "C:\\Users\\Nastya\\.nuget\\packages\\system.valuetuple/4.5.0\\lib/net461/System.ValueTuple.dll",
        "C:\\Users\\Nastya\\.nuget\\packages\\uipath.mail.activities/1.8.5\\lib/net461/MailKit.dll",
        "C:\\Users\\Nastya\\.nuget\\packages\\uipath.mail.activities/1.8.5\\lib/net461/MimeKit.dll",
        "C:\\Users\\Nastya\\.nuget\\packages\\uipath.mail.activities/1.8.5\\lib/net461/UiPath.Mail.Activities.Design.dll",
        "C:\\Users\\Nastya\\.nuget\\packages\\uipath.mail.activities/1.8.5\\lib/net461/UiPath.Mail.Activities.dll",
        "C:\\Users\\Nastya\\.nuget\\packages\\uipath.mail.activities/1.8.5\\lib/net461/UiPath.Mail.dll"
      ],
      "Path": "C:\\Users\\Nastya\\.nuget\\packages\\uipath.mail.activities\\1.8.5"
    },
    {
      "Package": {
        "Id": "UiPath.System.Activities",
        "Version": "20.4.0"
      },
      "Assemblies": [
        "C:\\Users\\Nastya\\.nuget\\packages\\csvhelper/2.13.5\\lib/net40-client/CsvHelper.dll",
        "C:\\Users\\Nastya\\.nuget\\packages\\microsoft.aspnet.signalr.client/2.4.0\\lib/net45/Microsoft.AspNet.SignalR.Client.dll",
        "C:\\Users\\Nastya\\.nuget\\packages\\microsoft.rest.clientruntime/2.3.20\\lib/net461/Microsoft.Rest.ClientRuntime.dll",
        "C:\\Users\\Nastya\\.nuget\\packages\\newtonsoft.json/11.0.2\\lib/net45/Newtonsoft.Json.dll",
        "C:\\Users\\Nastya\\.nuget\\packages\\uipath.system.activities/20.4.0\\lib/net461/ActiproSoftware.Docking.Wpf.dll",
        "C:\\Users\\Nastya\\.nuget\\packages\\uipath.system.activities/20.4.0\\lib/net461/ActiproSoftware.Ribbon.Wpf.dll",
        "C:\\Users\\Nastya\\.nuget\\packages\\uipath.system.activities/20.4.0\\lib/net461/ActiproSoftware.Shared.Wpf.dll",
        "C:\\Users\\Nastya\\.nuget\\packages\\uipath.system.activities/20.4.0\\lib/net461/ActiproSoftware.SyntaxEditor.Addons.DotNet.Wpf.dll",
        "C:\\Users\\Nastya\\.nuget\\packages\\uipath.system.activities/20.4.0\\lib/net461/ActiproSoftware.SyntaxEditor.Wpf.dll",
        "C:\\Users\\Nastya\\.nuget\\packages\\uipath.system.activities/20.4.0\\lib/net461/ActiproSoftware.Text.Addons.DotNet.Wpf.dll",
        "C:\\Users\\Nastya\\.nuget\\packages\\uipath.system.activities/20.4.0\\lib/net461/ActiproSoftware.Text.LLParser.Wpf.dll",
        "C:\\Users\\Nastya\\.nuget\\packages\\uipath.system.activities/20.4.0\\lib/net461/ActiproSoftware.Text.Wpf.dll",
        "C:\\Users\\Nastya\\.nuget\\packages\\uipath.system.activities/20.4.0\\lib/net461/ActiproSoftware.Wizard.Wpf.dll",
        "C:\\Users\\Nastya\\.nuget\\packages\\uipath.system.activities/20.4.0\\lib/net461/UiPath.OrchestratorClient.dll",
        "C:\\Users\\Nastya\\.nuget\\packages\\uipath.system.activities/20.4.0\\lib/net461/UiPath.System.Activities.Design.dll",
        "C:\\Users\\Nastya\\.nuget\\packages\\uipath.system.activities/20.4.0\\lib/net461/UiPath.System.Activities.dll"
      ],
      "Path": "C:\\Users\\Nastya\\.nuget\\packages\\uipath.system.activities\\20.4.0"
    },
    {
      "Package": {
        "Id": "UiPath.UIAutomationNext.Activities",
        "Version": "20.4.1"
      },
      "Assemblies": [
        "C:\\Users\\Nastya\\.nuget\\packages\\avalonedit/5.0.3\\lib/Net40/ICSharpCode.AvalonEdit.dll",
        "C:\\Users\\Nastya\\.nuget\\packages\\extended.wpf.toolkit/2.8.0\\lib/net40/Xceed.Wpf.AvalonDock.dll",
        "C:\\Users\\Nastya\\.nuget\\packages\\extended.wpf.toolkit/2.8.0\\lib/net40/Xceed.Wpf.AvalonDock.Themes.Aero.dll",
        "C:\\Users\\Nastya\\.nuget\\packages\\extended.wpf.toolkit/2.8.0\\lib/net40/Xceed.Wpf.AvalonDock.Themes.Metro.dll",
        "C:\\Users\\Nastya\\.nuget\\packages\\extended.wpf.toolkit/2.8.0\\lib/net40/Xceed.Wpf.AvalonDock.Themes.VS2010.dll",
        "C:\\Users\\Nastya\\.nuget\\packages\\extended.wpf.toolkit/2.8.0\\lib/net40/Xceed.Wpf.DataGrid.dll",
        "C:\\Users\\Nastya\\.nuget\\packages\\extended.wpf.toolkit/2.8.0\\lib/net40/Xceed.Wpf.Toolkit.dll",
        "C:\\Users\\Nastya\\.nuget\\packages\\newtonsoft.json/11.0.2\\lib/net45/Newtonsoft.Json.dll",
        "C:\\Users\\Nastya\\.nuget\\packages\\system.io.abstractions/3.0.10\\lib/net40/System.IO.Abstractions.dll",
        "C:\\Users\\Nastya\\.nuget\\packages\\system.threading.tasks.dataflow/4.10.0\\lib/netstandard2.0/System.Threading.Tasks.Dataflow.dll",
        "C:\\Users\\Nastya\\.nuget\\packages\\system.valuetuple/4.5.0\\lib/net461/System.ValueTuple.dll",
        "C:\\Users\\Nastya\\.nuget\\packages\\uipath/20.4.7422.14731\\lib/UiPath.Interop.dll",
        "C:\\Users\\Nastya\\.nuget\\packages\\uipath.ocr.contracts/2.6.0\\lib/net461/UiPath.OCR.Contracts.dll",
        "C:\\Users\\Nastya\\.nuget\\packages\\uipath.platform/20.4.0\\lib/net461/UiPath.Platform.dll",
        "C:\\Users\\Nastya\\.nuget\\packages\\uipath.telemetry.client/1.1.51\\lib/net461/TelemetryClient.dll",
        "C:\\Users\\Nastya\\.nuget\\packages\\uipath.uiautomationnext.activities/20.4.1\\lib/net461/UiPath.UIAutomationNext.Activities.Design.dll",
        "C:\\Users\\Nastya\\.nuget\\packages\\uipath.uiautomationnext.activities/20.4.1\\lib/net461/UiPath.UIAutomationNext.Activities.dll",
        "C:\\Users\\Nastya\\.nuget\\packages\\uipath.uiautomationnext.activities/20.4.1\\lib/net461/UiPath.UIAutomationNext.dll",
        "C:\\Users\\Nastya\\.nuget\\packages\\uipath.vision/2.0.3\\lib/net461/UiPath.Vision.AzureComputerVision.dll",
        "C:\\Users\\Nastya\\.nuget\\packages\\uipath.vision/2.0.3\\lib/net461/UiPath.Vision.Core.dll",
        "C:\\Users\\Nastya\\.nuget\\packages\\uipath.vision/2.0.3\\lib/net461/UiPath.Vision.dll",
        "C:\\Users\\Nastya\\.nuget\\packages\\uipath.vision/2.0.3\\lib/net461/UiPath.Vision.GoogleCloud.dll",
        "C:\\Users\\Nastya\\.nuget\\packages\\uipath.vision/2.0.3\\lib/net461/UiPath.Vision.Microsoft.dll",
        "C:\\Users\\Nastya\\.nuget\\packages\\uipath.vision/2.0.3\\lib/net461/UiPath.Vision.MicrosoftCloud.dll",
        "C:\\Users\\Nastya\\.nuget\\packages\\uipath.vision/2.0.3\\lib/net461/UiPath.Vision.Tesseract.dll"
      ],
      "Path": "C:\\Users\\Nastya\\.nuget\\packages\\uipath.uiautomationnext.activities\\20.4.1"
    },
    {
      "Package": {
        "Id": "UiPath.Word.Activities",
        "Version": "1.4.2"
      },
      "Assemblies": [
        "C:\\Users\\Nastya\\.nuget\\packages\\docx/1.0.0.18\\lib/net40/DocX.dll",
        "C:\\Users\\Nastya\\.nuget\\packages\\uipath.word.activities/1.4.2\\lib/net461/UiPath.Word.Activities.Design.dll",
        "C:\\Users\\Nastya\\.nuget\\packages\\uipath.word.activities/1.4.2\\lib/net461/UiPath.Word.Activities.dll",
        "C:\\Users\\Nastya\\.nuget\\packages\\uipath.word.activities/1.4.2\\lib/net461/UiPath.Word.dll"
      ],
      "Path": "C:\\Users\\Nastya\\.nuget\\packages\\uipath.word.activities\\1.4.2"
    }
  ],
  "Conflicts": [],
  "ResolvedDependencies": {
    "AvalonEdit": {
      "Id": "AvalonEdit",
      "Version": "5.0.3",
      "Dependencies": []
    },
    "BouncyCastle": {
      "Id": "BouncyCastle",
      "Version": "1.8.5",
      "Dependencies": []
    },
    "ClosedXML": {
      "Id": "ClosedXML",
      "Version": "0.87.1",
      "Dependencies": [
        {
          "Item1": "DocumentFormat.OpenXml",
          "Item2": "[2.5.0, )"
        }
      ]
    },
    "CsvHelper": {
      "Id": "CsvHelper",
      "Version": "2.13.5",
      "Dependencies": []
    },
    "DocumentFormat.OpenXml": {
      "Id": "DocumentFormat.OpenXml",
      "Version": "2.5.0",
      "Dependencies": []
    },
    "DocX": {
      "Id": "DocX",
      "Version": "1.0.0.18",
      "Dependencies": []
    },
    "Extended.Wpf.Toolkit": {
      "Id": "Extended.Wpf.Toolkit",
      "Version": "2.8.0",
      "Dependencies": []
    },
    "interop.domino.dll": {
      "Id": "interop.domino.dll",
      "Version": "1.0.0",
      "Dependencies": []
    },
    "Microsoft.AspNet.SignalR.Client": {
      "Id": "Microsoft.AspNet.SignalR.Client",
      "Version": "2.4.0",
      "Dependencies": [
        {
          "Item1": "Newtonsoft.Json",
          "Item2": "[6.0.4, )"
        }
      ]
    },
    "Microsoft.Exchange.WebServices": {
      "Id": "Microsoft.Exchange.WebServices",
      "Version": "2.2.0",
      "Dependencies": []
    },
    "Microsoft.Rest.ClientRuntime": {
      "Id": "Microsoft.Rest.ClientRuntime",
      "Version": "2.3.20",
      "Dependencies": [
        {
          "Item1": "Newtonsoft.Json",
          "Item2": "[10.0.3, )"
        }
      ]
    },
    "Microsoft.VisualStudio.OLE.Interop": {
      "Id": "Microsoft.VisualStudio.OLE.Interop",
      "Version": "7.10.6071",
      "Dependencies": []
    },
    "Newtonsoft.Json": {
      "Id": "Newtonsoft.Json",
      "Version": "11.0.2",
      "Dependencies": []
    },
    "NPOI": {
      "Id": "NPOI",
      "Version": "2.4.1",
      "Dependencies": [
        {
          "Item1": "SharpZipLib",
          "Item2": "[1.0.0, )"
        }
      ]
    },
    "SharpZipLib": {
      "Id": "SharpZipLib",
      "Version": "1.0.0",
      "Dependencies": []
    },
    "System.IO.Abstractions": {
      "Id": "System.IO.Abstractions",
      "Version": "3.0.10",
      "Dependencies": []
    },
    "System.Threading.Tasks.Dataflow": {
      "Id": "System.Threading.Tasks.Dataflow",
      "Version": "4.10.0",
      "Dependencies": []
    },
    "System.ValueTuple": {
      "Id": "System.ValueTuple",
      "Version": "4.5.0",
      "Dependencies": []
    },
    "UiPath": {
      "Id": "UiPath",
      "Version": "20.4.7422.14731",
      "Dependencies": []
    },
    "UiPath.ComplexScenarios.Activities": {
      "Id": "UiPath.ComplexScenarios.Activities",
      "Version": "1.0.2",
      "Dependencies": []
    },
    "UiPath.Excel.Activities": {
      "Id": "UiPath.Excel.Activities",
      "Version": "2.8.5",
      "Dependencies": [
        {
          "Item1": "ClosedXML",
          "Item2": "[0.87.1, )"
        },
        {
          "Item1": "CsvHelper",
          "Item2": "[2.13.5, )"
        },
        {
          "Item1": "DocumentFormat.OpenXml",
          "Item2": "[2.5.0, )"
        },
        {
          "Item1": "Microsoft.VisualStudio.OLE.Interop",
          "Item2": "[7.10.6071, )"
        },
        {
          "Item1": "NPOI",
          "Item2": "[2.4.1, )"
        },
        {
          "Item1": "SharpZipLib",
          "Item2": "[1.0.0, )"
        }
      ]
    },
    "UiPath.Mail.Activities": {
      "Id": "UiPath.Mail.Activities",
      "Version": "1.8.5",
      "Dependencies": [
        {
          "Item1": "System.ValueTuple",
          "Item2": "[4.5.0, )"
        },
        {
          "Item1": "Microsoft.Exchange.WebServices",
          "Item2": "[2.2.0, )"
        },
        {
          "Item1": "BouncyCastle",
          "Item2": "[1.8.5, )"
        },
        {
          "Item1": "interop.domino.dll",
          "Item2": "[1.0.0, )"
        }
      ]
    },
    "UiPath.OCR.Contracts": {
      "Id": "UiPath.OCR.Contracts",
      "Version": "2.6.0",
      "Dependencies": []
    },
    "UiPath.Platform": {
      "Id": "UiPath.Platform",
      "Version": "20.4.0",
      "Dependencies": [
        {
          "Item1": "Newtonsoft.Json",
          "Item2": "[11.0.2, )"
        },
        {
          "Item1": "System.IO.Abstractions",
          "Item2": "[3.0.10, )"
        },
        {
          "Item1": "System.ValueTuple",
          "Item2": "[4.5.0, )"
        }
      ]
    },
    "UiPath.System.Activities": {
      "Id": "UiPath.System.Activities",
      "Version": "20.4.0",
      "Dependencies": [
        {
          "Item1": "CsvHelper",
          "Item2": "[2.13.5, )"
        },
        {
          "Item1": "Microsoft.AspNet.SignalR.Client",
          "Item2": "[2.4.0, )"
        },
        {
          "Item1": "Microsoft.Rest.ClientRuntime",
          "Item2": "[2.3.20, )"
        },
        {
          "Item1": "Newtonsoft.Json",
          "Item2": "[11.0.2, )"
        }
      ]
    },
    "UiPath.Telemetry.Client": {
      "Id": "UiPath.Telemetry.Client",
      "Version": "1.1.51",
      "Dependencies": [
        {
          "Item1": "Newtonsoft.Json",
          "Item2": "[11.0.1, )"
        },
        {
          "Item1": "System.Threading.Tasks.Dataflow",
          "Item2": "[4.10.0, )"
        }
      ]
    },
    "UiPath.UIAutomationNext.Activities": {
      "Id": "UiPath.UIAutomationNext.Activities",
      "Version": "20.4.1",
      "Dependencies": [
        {
          "Item1": "UiPath",
          "Item2": "[20.4.7422.14731, 20.4.7422.14731]"
        },
        {
          "Item1": "UiPath.Platform",
          "Item2": "[20.4.0, )"
        },
        {
          "Item1": "UiPath.Vision",
          "Item2": "[2.0.3, )"
        },
        {
          "Item1": "AvalonEdit",
          "Item2": "[5.0.3, )"
        },
        {
          "Item1": "Extended.Wpf.Toolkit",
          "Item2": "[2.8.0, )"
        },
        {
          "Item1": "Newtonsoft.Json",
          "Item2": "[11.0.2, )"
        },
        {
          "Item1": "System.IO.Abstractions",
          "Item2": "[3.0.10, )"
        },
        {
          "Item1": "System.ValueTuple",
          "Item2": "[4.5.0, )"
        },
        {
          "Item1": "UiPath.Telemetry.Client",
          "Item2": "[1.1.51, )"
        }
      ]
    },
    "UiPath.Vision": {
      "Id": "UiPath.Vision",
      "Version": "2.0.3",
      "Dependencies": [
        {
          "Item1": "UiPath.OCR.Contracts",
          "Item2": "[2.6.0, )"
        }
      ]
    },
    "UiPath.Word.Activities": {
      "Id": "UiPath.Word.Activities",
      "Version": "1.4.2",
      "Dependencies": [
        {
          "Item1": "DocX",
          "Item2": "[1.0.0.18, )"
        }
      ]
    }
  },
  "AllPackages": [
    {
      "Package": {
        "Id": "AvalonEdit",
        "Version": "5.0.3"
      },
      "Assemblies": [
        "C:\\Users\\Nastya\\.nuget\\packages\\avalonedit\\5.0.3\\lib\\Net40\\ICSharpCode.AvalonEdit.dll"
      ],
      "Path": "C:\\Users\\Nastya\\.nuget\\packages\\avalonedit\\5.0.3"
    },
    {
      "Package": {
        "Id": "BouncyCastle",
        "Version": "1.8.5"
      },
      "Assemblies": [
        "C:\\Users\\Nastya\\.nuget\\packages\\bouncycastle\\1.8.5\\lib\\BouncyCastle.Crypto.dll"
      ],
      "Path": "C:\\Users\\Nastya\\.nuget\\packages\\bouncycastle\\1.8.5"
    },
    {
      "Package": {
        "Id": "ClosedXML",
        "Version": "0.87.1"
      },
      "Assemblies": [
        "C:\\Users\\Nastya\\.nuget\\packages\\closedxml\\0.87.1\\lib\\net40\\ClosedXML.dll"
      ],
      "Path": "C:\\Users\\Nastya\\.nuget\\packages\\closedxml\\0.87.1"
    },
    {
      "Package": {
        "Id": "CsvHelper",
        "Version": "2.13.5"
      },
      "Assemblies": [
        "C:\\Users\\Nastya\\.nuget\\packages\\csvhelper\\2.13.5\\lib\\net40-client\\CsvHelper.dll"
      ],
      "Path": "C:\\Users\\Nastya\\.nuget\\packages\\csvhelper\\2.13.5"
    },
    {
      "Package": {
        "Id": "DocumentFormat.OpenXml",
        "Version": "2.5.0"
      },
      "Assemblies": [
        "C:\\Users\\Nastya\\.nuget\\packages\\documentformat.openxml\\2.5.0\\lib\\DocumentFormat.OpenXml.dll"
      ],
      "Path": "C:\\Users\\Nastya\\.nuget\\packages\\documentformat.openxml\\2.5.0"
    },
    {
      "Package": {
        "Id": "DocX",
        "Version": "1.0.0.18"
      },
      "Assemblies": [
        "C:\\Users\\Nastya\\.nuget\\packages\\docx\\1.0.0.18\\lib\\net40\\DocX.dll"
      ],
      "Path": "C:\\Users\\Nastya\\.nuget\\packages\\docx\\1.0.0.18"
    },
    {
      "Package": {
        "Id": "Extended.Wpf.Toolkit",
        "Version": "2.8.0"
      },
      "Assemblies": [
        "C:\\Users\\Nastya\\.nuget\\packages\\extended.wpf.toolkit\\2.8.0\\lib\\net40\\Xceed.Wpf.AvalonDock.dll",
        "C:\\Users\\Nastya\\.nuget\\packages\\extended.wpf.toolkit\\2.8.0\\lib\\net40\\Xceed.Wpf.AvalonDock.Themes.Aero.dll",
        "C:\\Users\\Nastya\\.nuget\\packages\\extended.wpf.toolkit\\2.8.0\\lib\\net40\\Xceed.Wpf.AvalonDock.Themes.Metro.dll",
        "C:\\Users\\Nastya\\.nuget\\packages\\extended.wpf.toolkit\\2.8.0\\lib\\net40\\Xceed.Wpf.AvalonDock.Themes.VS2010.dll",
        "C:\\Users\\Nastya\\.nuget\\packages\\extended.wpf.toolkit\\2.8.0\\lib\\net40\\Xceed.Wpf.DataGrid.dll",
        "C:\\Users\\Nastya\\.nuget\\packages\\extended.wpf.toolkit\\2.8.0\\lib\\net40\\Xceed.Wpf.Toolkit.dll"
      ],
      "Path": "C:\\Users\\Nastya\\.nuget\\packages\\extended.wpf.toolkit\\2.8.0"
    },
    {
      "Package": {
        "Id": "interop.domino.dll",
        "Version": "1.0.0"
      },
      "Assemblies": [
        "C:\\Users\\Nastya\\.nuget\\packages\\interop.domino.dll\\1.0.0\\lib\\Interop.Domino.dll"
      ],
      "Path": "C:\\Users\\Nastya\\.nuget\\packages\\interop.domino.dll\\1.0.0"
    },
    {
      "Package": {
        "Id": "Microsoft.AspNet.SignalR.Client",
        "Version": "2.4.0"
      },
      "Assemblies": [
        "C:\\Users\\Nastya\\.nuget\\packages\\microsoft.aspnet.signalr.client\\2.4.0\\lib\\net45\\Microsoft.AspNet.SignalR.Client.dll"
      ],
      "Path": "C:\\Users\\Nastya\\.nuget\\packages\\microsoft.aspnet.signalr.client\\2.4.0"
    },
    {
      "Package": {
        "Id": "Microsoft.Exchange.WebServices",
        "Version": "2.2.0"
      },
      "Assemblies": [
        "C:\\Users\\Nastya\\.nuget\\packages\\microsoft.exchange.webservices\\2.2.0\\lib\\40\\Microsoft.Exchange.WebServices.Auth.dll",
        "C:\\Users\\Nastya\\.nuget\\packages\\microsoft.exchange.webservices\\2.2.0\\lib\\40\\Microsoft.Exchange.WebServices.dll"
      ],
      "Path": "C:\\Users\\Nastya\\.nuget\\packages\\microsoft.exchange.webservices\\2.2.0"
    },
    {
      "Package": {
        "Id": "Microsoft.Rest.ClientRuntime",
        "Version": "2.3.20"
      },
      "Assemblies": [
        "C:\\Users\\Nastya\\.nuget\\packages\\microsoft.rest.clientruntime\\2.3.20\\lib\\net461\\Microsoft.Rest.ClientRuntime.dll"
      ],
      "Path": "C:\\Users\\Nastya\\.nuget\\packages\\microsoft.rest.clientruntime\\2.3.20"
    },
    {
      "Package": {
        "Id": "Microsoft.VisualStudio.OLE.Interop",
        "Version": "7.10.6071"
      },
      "Assemblies": [
        "C:\\Users\\Nastya\\.nuget\\packages\\microsoft.visualstudio.ole.interop\\7.10.6071\\lib\\Microsoft.VisualStudio.OLE.Interop.dll"
      ],
      "Path": "C:\\Users\\Nastya\\.nuget\\packages\\microsoft.visualstudio.ole.interop\\7.10.6071"
    },
    {
      "Package": {
        "Id": "Newtonsoft.Json",
        "Version": "11.0.2"
      },
      "Assemblies": [
        "C:\\Users\\Nastya\\.nuget\\packages\\newtonsoft.json\\11.0.2\\lib\\net45\\Newtonsoft.Json.dll"
      ],
      "Path": "C:\\Users\\Nastya\\.nuget\\packages\\newtonsoft.json\\11.0.2"
    },
    {
      "Package": {
        "Id": "NPOI",
        "Version": "2.4.1"
      },
      "Assemblies": [
        "C:\\Users\\Nastya\\.nuget\\packages\\npoi\\2.4.1\\lib\\net45\\NPOI.dll",
        "C:\\Users\\Nastya\\.nuget\\packages\\npoi\\2.4.1\\lib\\net45\\NPOI.OOXML.dll",
        "C:\\Users\\Nastya\\.nuget\\packages\\npoi\\2.4.1\\lib\\net45\\NPOI.OpenXml4Net.dll",
        "C:\\Users\\Nastya\\.nuget\\packages\\npoi\\2.4.1\\lib\\net45\\NPOI.OpenXmlFormats.dll"
      ],
      "Path": "C:\\Users\\Nastya\\.nuget\\packages\\npoi\\2.4.1"
    },
    {
      "Package": {
        "Id": "SharpZipLib",
        "Version": "1.0.0"
      },
      "Assemblies": [
        "C:\\Users\\Nastya\\.nuget\\packages\\sharpziplib\\1.0.0\\lib\\net45\\ICSharpCode.SharpZipLib.dll"
      ],
      "Path": "C:\\Users\\Nastya\\.nuget\\packages\\sharpziplib\\1.0.0"
    },
    {
      "Package": {
        "Id": "System.IO.Abstractions",
        "Version": "3.0.10"
      },
      "Assemblies": [
        "C:\\Users\\Nastya\\.nuget\\packages\\system.io.abstractions\\3.0.10\\lib\\net40\\System.IO.Abstractions.dll"
      ],
      "Path": "C:\\Users\\Nastya\\.nuget\\packages\\system.io.abstractions\\3.0.10"
    },
    {
      "Package": {
        "Id": "System.Threading.Tasks.Dataflow",
        "Version": "4.10.0"
      },
      "Assemblies": [
        "C:\\Users\\Nastya\\.nuget\\packages\\system.threading.tasks.dataflow\\4.10.0\\lib\\netstandard2.0\\System.Threading.Tasks.Dataflow.dll"
      ],
      "Path": "C:\\Users\\Nastya\\.nuget\\packages\\system.threading.tasks.dataflow\\4.10.0"
    },
    {
      "Package": {
        "Id": "System.ValueTuple",
        "Version": "4.5.0"
      },
      "Assemblies": [
        "C:\\Users\\Nastya\\.nuget\\packages\\system.valuetuple\\4.5.0\\lib\\net461\\System.ValueTuple.dll"
      ],
      "Path": "C:\\Users\\Nastya\\.nuget\\packages\\system.valuetuple\\4.5.0"
    },
    {
      "Package": {
        "Id": "UiPath",
        "Version": "20.4.7422.14731"
      },
      "Assemblies": [
        "C:\\Users\\Nastya\\.nuget\\packages\\uipath\\20.4.7422.14731\\lib\\UiPath.Interop.dll"
      ],
      "Path": "C:\\Users\\Nastya\\.nuget\\packages\\uipath\\20.4.7422.14731"
    },
    {
      "Package": {
        "Id": "UiPath.ComplexScenarios.Activities",
        "Version": "1.0.2"
      },
      "Assemblies": [
        "C:\\Users\\Nastya\\.nuget\\packages\\uipath.complexscenarios.activities\\1.0.2\\lib\\net461\\UiPath.ComplexScenarios.Design.dll"
      ],
      "Path": "C:\\Users\\Nastya\\.nuget\\packages\\uipath.complexscenarios.activities\\1.0.2"
    },
    {
      "Package": {
        "Id": "UiPath.Excel.Activities",
        "Version": "2.8.5"
      },
      "Assemblies": [
        "C:\\Users\\Nastya\\.nuget\\packages\\uipath.excel.activities\\2.8.5\\lib\\net461\\UiPath.Excel.Activities.Design.dll",
        "C:\\Users\\Nastya\\.nuget\\packages\\uipath.excel.activities\\2.8.5\\lib\\net461\\UiPath.Excel.Activities.dll",
        "C:\\Users\\Nastya\\.nuget\\packages\\uipath.excel.activities\\2.8.5\\lib\\net461\\UiPath.Excel.dll"
      ],
      "Path": "C:\\Users\\Nastya\\.nuget\\packages\\uipath.excel.activities\\2.8.5"
    },
    {
      "Package": {
        "Id": "UiPath.Mail.Activities",
        "Version": "1.8.5"
      },
      "Assemblies": [
        "C:\\Users\\Nastya\\.nuget\\packages\\uipath.mail.activities\\1.8.5\\lib\\net461\\MailKit.dll",
        "C:\\Users\\Nastya\\.nuget\\packages\\uipath.mail.activities\\1.8.5\\lib\\net461\\MimeKit.dll",
        "C:\\Users\\Nastya\\.nuget\\packages\\uipath.mail.activities\\1.8.5\\lib\\net461\\UiPath.Mail.Activities.Design.dll",
        "C:\\Users\\Nastya\\.nuget\\packages\\uipath.mail.activities\\1.8.5\\lib\\net461\\UiPath.Mail.Activities.dll",
        "C:\\Users\\Nastya\\.nuget\\packages\\uipath.mail.activities\\1.8.5\\lib\\net461\\UiPath.Mail.dll"
      ],
      "Path": "C:\\Users\\Nastya\\.nuget\\packages\\uipath.mail.activities\\1.8.5"
    },
    {
      "Package": {
        "Id": "UiPath.OCR.Contracts",
        "Version": "2.6.0"
      },
      "Assemblies": [
        "C:\\Users\\Nastya\\.nuget\\packages\\uipath.ocr.contracts\\2.6.0\\lib\\net461\\UiPath.OCR.Contracts.dll"
      ],
      "Path": "C:\\Users\\Nastya\\.nuget\\packages\\uipath.ocr.contracts\\2.6.0"
    },
    {
      "Package": {
        "Id": "UiPath.Platform",
        "Version": "20.4.0"
      },
      "Assemblies": [
        "C:\\Users\\Nastya\\.nuget\\packages\\uipath.platform\\20.4.0\\lib\\net461\\UiPath.Platform.dll"
      ],
      "Path": "C:\\Users\\Nastya\\.nuget\\packages\\uipath.platform\\20.4.0"
    },
    {
      "Package": {
        "Id": "UiPath.System.Activities",
        "Version": "20.4.0"
      },
      "Assemblies": [
        "C:\\Users\\Nastya\\.nuget\\packages\\uipath.system.activities\\20.4.0\\lib\\net461\\ActiproSoftware.Docking.Wpf.dll",
        "C:\\Users\\Nastya\\.nuget\\packages\\uipath.system.activities\\20.4.0\\lib\\net461\\ActiproSoftware.Ribbon.Wpf.dll",
        "C:\\Users\\Nastya\\.nuget\\packages\\uipath.system.activities\\20.4.0\\lib\\net461\\ActiproSoftware.Shared.Wpf.dll",
        "C:\\Users\\Nastya\\.nuget\\packages\\uipath.system.activities\\20.4.0\\lib\\net461\\ActiproSoftware.SyntaxEditor.Addons.DotNet.Wpf.dll",
        "C:\\Users\\Nastya\\.nuget\\packages\\uipath.system.activities\\20.4.0\\lib\\net461\\ActiproSoftware.SyntaxEditor.Wpf.dll",
        "C:\\Users\\Nastya\\.nuget\\packages\\uipath.system.activities\\20.4.0\\lib\\net461\\ActiproSoftware.Text.Addons.DotNet.Wpf.dll",
        "C:\\Users\\Nastya\\.nuget\\packages\\uipath.system.activities\\20.4.0\\lib\\net461\\ActiproSoftware.Text.LLParser.Wpf.dll",
        "C:\\Users\\Nastya\\.nuget\\packages\\uipath.system.activities\\20.4.0\\lib\\net461\\ActiproSoftware.Text.Wpf.dll",
        "C:\\Users\\Nastya\\.nuget\\packages\\uipath.system.activities\\20.4.0\\lib\\net461\\ActiproSoftware.Wizard.Wpf.dll",
        "C:\\Users\\Nastya\\.nuget\\packages\\uipath.system.activities\\20.4.0\\lib\\net461\\CustomInputForm.exe",
        "C:\\Users\\Nastya\\.nuget\\packages\\uipath.system.activities\\20.4.0\\lib\\net461\\UiPath.OrchestratorClient.dll",
        "C:\\Users\\Nastya\\.nuget\\packages\\uipath.system.activities\\20.4.0\\lib\\net461\\UiPath.System.Activities.Design.dll",
        "C:\\Users\\Nastya\\.nuget\\packages\\uipath.system.activities\\20.4.0\\lib\\net461\\UiPath.System.Activities.dll"
      ],
      "Path": "C:\\Users\\Nastya\\.nuget\\packages\\uipath.system.activities\\20.4.0"
    },
    {
      "Package": {
        "Id": "UiPath.Telemetry.Client",
        "Version": "1.1.51"
      },
      "Assemblies": [
        "C:\\Users\\Nastya\\.nuget\\packages\\uipath.telemetry.client\\1.1.51\\lib\\net461\\TelemetryClient.dll"
      ],
      "Path": "C:\\Users\\Nastya\\.nuget\\packages\\uipath.telemetry.client\\1.1.51"
    },
    {
      "Package": {
        "Id": "UiPath.UIAutomationNext.Activities",
        "Version": "20.4.1"
      },
      "Assemblies": [
        "C:\\Users\\Nastya\\.nuget\\packages\\uipath.uiautomationnext.activities\\20.4.1\\lib\\net461\\UiPath.UIAutomationNext.Activities.Design.dll",
        "C:\\Users\\Nastya\\.nuget\\packages\\uipath.uiautomationnext.activities\\20.4.1\\lib\\net461\\UiPath.UIAutomationNext.Activities.dll",
        "C:\\Users\\Nastya\\.nuget\\packages\\uipath.uiautomationnext.activities\\20.4.1\\lib\\net461\\UiPath.UIAutomationNext.dll"
      ],
      "Path": "C:\\Users\\Nastya\\.nuget\\packages\\uipath.uiautomationnext.activities\\20.4.1"
    },
    {
      "Package": {
        "Id": "UiPath.Vision",
        "Version": "2.0.3"
      },
      "Assemblies": [
        "C:\\Users\\Nastya\\.nuget\\packages\\uipath.vision\\2.0.3\\lib\\net461\\UiPath.Vision.Core.dll",
        "C:\\Users\\Nastya\\.nuget\\packages\\uipath.vision\\2.0.3\\lib\\net461\\UiPath.Vision.dll"
      ],
      "Path": "C:\\Users\\Nastya\\.nuget\\packages\\uipath.vision\\2.0.3"
    },
    {
      "Package": {
        "Id": "UiPath.Word.Activities",
        "Version": "1.4.2"
      },
      "Assemblies": [
        "C:\\Users\\Nastya\\.nuget\\packages\\uipath.word.activities\\1.4.2\\lib\\net461\\UiPath.Word.Activities.Design.dll",
        "C:\\Users\\Nastya\\.nuget\\packages\\uipath.word.activities\\1.4.2\\lib\\net461\\UiPath.Word.Activities.dll",
        "C:\\Users\\Nastya\\.nuget\\packages\\uipath.word.activities\\1.4.2\\lib\\net461\\UiPath.Word.dll"
      ],
      "Path": "C:\\Users\\Nastya\\.nuget\\packages\\uipath.word.activities\\1.4.2"
    }
  ]
}